Final_Project/criptografia/projeto_final/simulation/qsim/projeto_final_logica.msim.vcd
$comment
	File created using the following command:
		vcd file projeto_final_logica.msim.vcd -direction
$end
$date
	Mon Dec 13 20:27:13 2021
$end
$version
	ModelSim Version 10.1d
$end
$timescale
	1ps
$end
$scope module projeto_final_forca_bruta_vlg_vec_tst $end
$var reg 1 ! aclr $end
$var reg 1 " choose $end
$var reg 1 # clock $end
$var reg 1 $ clock_ram_2 $end
$var reg 8 % datain [7:0] $end
$var reg 8 & pos_manual [7:0] $end
$var reg 1 ' we $end
$var wire 1 ( comp_result $end
$var wire 1 ) count_output [7] $end
$var wire 1 * count_output [6] $end
$var wire 1 + count_output [5] $end
$var wire 1 , count_output [4] $end
$var wire 1 - count_output [3] $end
$var wire 1 . count_output [2] $end
$var wire 1 / count_output [1] $end
$var wire 1 0 count_output [0] $end
$var wire 1 1 dataout [7] $end
$var wire 1 2 dataout [6] $end
$var wire 1 3 dataout [5] $end
$var wire 1 4 dataout [4] $end
$var wire 1 5 dataout [3] $end
$var wire 1 6 dataout [2] $end
$var wire 1 7 dataout [1] $end
$var wire 1 8 dataout [0] $end
$var wire 1 9 output_memory [7] $end
$var wire 1 : output_memory [6] $end
$var wire 1 ; output_memory [5] $end
$var wire 1 < output_memory [4] $end
$var wire 1 = output_memory [3] $end
$var wire 1 > output_memory [2] $end
$var wire 1 ? output_memory [1] $end
$var wire 1 @ output_memory [0] $end
$var wire 1 A q [7] $end
$var wire 1 B q [6] $end
$var wire 1 C q [5] $end
$var wire 1 D q [4] $end
$var wire 1 E q [3] $end
$var wire 1 F q [2] $end
$var wire 1 G q [1] $end
$var wire 1 H q [0] $end
$var wire 1 I sampler $end
$scope module i1 $end
$var wire 1 J gnd $end
$var wire 1 K vcc $end
$var wire 1 L unknown $end
$var tri1 1 M devclrn $end
$var tri1 1 N devpor $end
$var tri1 1 O devoe $end
$var wire 1 P we~combout $end
$var wire 1 Q inst21|result~clkctrl_outclk $end
$var wire 1 R inst14|LPM_COUNTER_component|auto_generated|counter_comb_bita0~combout $end
$var wire 1 S ~GND~combout $end
$var wire 1 T inst14|LPM_COUNTER_component|auto_generated|counter_comb_bita0~COUT $end
$var wire 1 U inst14|LPM_COUNTER_component|auto_generated|counter_comb_bita1~combout $end
$var wire 1 V inst14|LPM_COUNTER_component|auto_generated|counter_comb_bita1~COUT $end
$var wire 1 W inst14|LPM_COUNTER_component|auto_generated|counter_comb_bita2~combout $end
$var wire 1 X inst14|LPM_COUNTER_component|auto_generated|counter_comb_bita2~COUT $end
$var wire 1 Y inst14|LPM_COUNTER_component|auto_generated|counter_comb_bita3~COUT $end
$var wire 1 Z inst14|LPM_COUNTER_component|auto_generated|counter_comb_bita4~combout $end
$var wire 1 [ inst14|LPM_COUNTER_component|auto_generated|counter_comb_bita4~COUT $end
$var wire 1 \ inst14|LPM_COUNTER_component|auto_generated|counter_comb_bita5~COUT $end
$var wire 1 ] inst14|LPM_COUNTER_component|auto_generated|counter_comb_bita6~COUT $end
$var wire 1 ^ inst14|LPM_COUNTER_component|auto_generated|counter_comb_bita7~combout $end
$var wire 1 _ clock~combout $end
$var wire 1 ` inst23|LPM_COUNTER_component|auto_generated|counter_comb_bita0~combout $end
$var wire 1 a aclr~combout $end
$var wire 1 b aclr~clkctrl_outclk $end
$var wire 1 c inst|output[0]~0_combout $end
$var wire 1 d inst23|LPM_COUNTER_component|auto_generated|counter_comb_bita0~COUT $end
$var wire 1 e inst23|LPM_COUNTER_component|auto_generated|counter_comb_bita1~combout $end
$var wire 1 f inst|output[1]~1_combout $end
$var wire 1 g choose~combout $end
$var wire 1 h inst23|LPM_COUNTER_component|auto_generated|counter_comb_bita1~COUT $end
$var wire 1 i inst23|LPM_COUNTER_component|auto_generated|counter_comb_bita2~combout $end
$var wire 1 j inst|output[2]~2_combout $end
$var wire 1 k inst23|LPM_COUNTER_component|auto_generated|counter_comb_bita2~COUT $end
$var wire 1 l inst23|LPM_COUNTER_component|auto_generated|counter_comb_bita3~combout $end
$var wire 1 m inst|output[3]~3_combout $end
$var wire 1 n inst23|LPM_COUNTER_component|auto_generated|counter_comb_bita3~COUT $end
$var wire 1 o inst23|LPM_COUNTER_component|auto_generated|counter_comb_bita4~combout $end
$var wire 1 p inst|output[4]~4_combout $end
$var wire 1 q inst23|LPM_COUNTER_component|auto_generated|counter_comb_bita4~COUT $end
$var wire 1 r inst23|LPM_COUNTER_component|auto_generated|counter_comb_bita5~combout $end
$var wire 1 s inst|output[5]~5_combout $end
$var wire 1 t inst23|LPM_COUNTER_component|auto_generated|counter_comb_bita5~COUT $end
$var wire 1 u inst23|LPM_COUNTER_component|auto_generated|counter_comb_bita6~combout $end
$var wire 1 v inst|output[6]~6_combout $end
$var wire 1 w inst23|LPM_COUNTER_component|auto_generated|counter_comb_bita6~COUT $end
$var wire 1 x inst23|LPM_COUNTER_component|auto_generated|counter_comb_bita7~combout $end
$var wire 1 y inst|output[7]~7_combout $end
$var wire 1 z inst24|ram_rtl_0|auto_generated|ram_block1a6 $end
$var wire 1 { inst24|ram_rtl_0|auto_generated|ram_block1a7 $end
$var wire 1 | inst21|result~0_combout $end
$var wire 1 } inst24|ram_rtl_0|auto_generated|ram_block1a3 $end
$var wire 1 ~ inst24|ram_rtl_0|auto_generated|ram_block1a2 $end
$var wire 1 !! inst21|result~2_combout $end
$var wire 1 "! inst24|ram_rtl_0|auto_generated|ram_block1a5 $end
$var wire 1 #! inst24|ram_rtl_0|auto_generated|ram_block1a4 $end
$var wire 1 $! inst21|result~1_combout $end
$var wire 1 %! inst24|ram_rtl_0|auto_generated|ram_block1a1 $end
$var wire 1 &! inst24|ram_rtl_0|auto_generated|ram_block1a0~portadataout $end
$var wire 1 '! inst21|result~3_combout $end
$var wire 1 (! inst21|result~combout $end
$var wire 1 )! inst14|LPM_COUNTER_component|auto_generated|counter_comb_bita6~combout $end
$var wire 1 *! inst14|LPM_COUNTER_component|auto_generated|counter_comb_bita5~combout $end
$var wire 1 +! inst14|LPM_COUNTER_component|auto_generated|counter_comb_bita3~combout $end
$var wire 1 ,! clock_ram_2~combout $end
$var wire 1 -! clock_ram_2~clkctrl_outclk $end
$var wire 1 .! inst5|ram_rtl_0|auto_generated|ram_block1a7 $end
$var wire 1 /! inst5|ram_rtl_0|auto_generated|ram_block1a6 $end
$var wire 1 0! inst5|ram_rtl_0|auto_generated|ram_block1a5 $end
$var wire 1 1! inst5|ram_rtl_0|auto_generated|ram_block1a4 $end
$var wire 1 2! inst5|ram_rtl_0|auto_generated|ram_block1a3 $end
$var wire 1 3! inst5|ram_rtl_0|auto_generated|ram_block1a2 $end
$var wire 1 4! inst5|ram_rtl_0|auto_generated|ram_block1a1 $end
$var wire 1 5! inst5|ram_rtl_0|auto_generated|ram_block1a0~portadataout $end
$var wire 1 6! inst23|LPM_COUNTER_component|auto_generated|safe_q [7] $end
$var wire 1 7! inst23|LPM_COUNTER_component|auto_generated|safe_q [6] $end
$var wire 1 8! inst23|LPM_COUNTER_component|auto_generated|safe_q [5] $end
$var wire 1 9! inst23|LPM_COUNTER_component|auto_generated|safe_q [4] $end
$var wire 1 :! inst23|LPM_COUNTER_component|auto_generated|safe_q [3] $end
$var wire 1 ;! inst23|LPM_COUNTER_component|auto_generated|safe_q [2] $end
$var wire 1 <! inst23|LPM_COUNTER_component|auto_generated|safe_q [1] $end
$var wire 1 =! inst23|LPM_COUNTER_component|auto_generated|safe_q [0] $end
$var wire 1 >! inst14|LPM_COUNTER_component|auto_generated|safe_q [7] $end
$var wire 1 ?! inst14|LPM_COUNTER_component|auto_generated|safe_q [6] $end
$var wire 1 @! inst14|LPM_COUNTER_component|auto_generated|safe_q [5] $end
$var wire 1 A! inst14|LPM_COUNTER_component|auto_generated|safe_q [4] $end
$var wire 1 B! inst14|LPM_COUNTER_component|auto_generated|safe_q [3] $end
$var wire 1 C! inst14|LPM_COUNTER_component|auto_generated|safe_q [2] $end
$var wire 1 D! inst14|LPM_COUNTER_component|auto_generated|safe_q [1] $end
$var wire 1 E! inst14|LPM_COUNTER_component|auto_generated|safe_q [0] $end
$var wire 1 F! pos_manual~combout [7] $end
$var wire 1 G! pos_manual~combout [6] $end
$var wire 1 H! pos_manual~combout [5] $end
$var wire 1 I! pos_manual~combout [4] $end
$var wire 1 J! pos_manual~combout [3] $end
$var wire 1 K! pos_manual~combout [2] $end
$var wire 1 L! pos_manual~combout [1] $end
$var wire 1 M! pos_manual~combout [0] $end
$var wire 1 N! datain~combout [7] $end
$var wire 1 O! datain~combout [6] $end
$var wire 1 P! datain~combout [5] $end
$var wire 1 Q! datain~combout [4] $end
$var wire 1 R! datain~combout [3] $end
$var wire 1 S! datain~combout [2] $end
$var wire 1 T! datain~combout [1] $end
$var wire 1 U! datain~combout [0] $end
$var wire 1 V! inst5|ram_rtl_0|auto_generated|ram_block1a0_PORTADATAOUT_bus [7] $end
$var wire 1 W! inst5|ram_rtl_0|auto_generated|ram_block1a0_PORTADATAOUT_bus [6] $end
$var wire 1 X! inst5|ram_rtl_0|auto_generated|ram_block1a0_PORTADATAOUT_bus [5] $end
$var wire 1 Y! inst5|ram_rtl_0|auto_generated|ram_block1a0_PORTADATAOUT_bus [4] $end
$var wire 1 Z! inst5|ram_rtl_0|auto_generated|ram_block1a0_PORTADATAOUT_bus [3] $end
$var wire 1 [! inst5|ram_rtl_0|auto_generated|ram_block1a0_PORTADATAOUT_bus [2] $end
$var wire 1 \! inst5|ram_rtl_0|auto_generated|ram_block1a0_PORTADATAOUT_bus [1] $end
$var wire 1 ]! inst5|ram_rtl_0|auto_generated|ram_block1a0_PORTADATAOUT_bus [0] $end
$var wire 1 ^! inst24|ram_rtl_0|auto_generated|ram_block1a0_PORTADATAOUT_bus [7] $end
$var wire 1 _! inst24|ram_rtl_0|auto_generated|ram_block1a0_PORTADATAOUT_bus [6] $end
$var wire 1 `! inst24|ram_rtl_0|auto_generated|ram_block1a0_PORTADATAOUT_bus [5] $end
$var wire 1 a! inst24|ram_rtl_0|auto_generated|ram_block1a0_PORTADATAOUT_bus [4] $end
$var wire 1 b! inst24|ram_rtl_0|auto_generated|ram_block1a0_PORTADATAOUT_bus [3] $end
$var wire 1 c! inst24|ram_rtl_0|auto_generated|ram_block1a0_PORTADATAOUT_bus [2] $end
$var wire 1 d! inst24|ram_rtl_0|auto_generated|ram_block1a0_PORTADATAOUT_bus [1] $end
$var wire 1 e! inst24|ram_rtl_0|auto_generated|ram_block1a0_PORTADATAOUT_bus [0] $end
$upscope $end
$upscope $end
$enddefinitions $end
#0
$dumpvars
0!
1"
0#
0$
b111 %
b0 &
1'
1(
00
0/
0.
0-
0,
0+
0*
0)
08
07
06
05
04
03
02
01
0@
0?
0>
0=
0<
0;
0:
09
0H
0G
0F
0E
0D
0C
0B
0A
xI
0J
1K
xL
1M
1N
1O
1P
1Q
1R
0S
0T
0U
1V
0W
0X
1Y
0Z
0[
1\
0]
0^
0_
1`
0a
0b
0c
0d
0e
0f
1g
1h
0i
0j
0k
0l
0m
1n
0o
0p
0q
0r
0s
1t
0u
0v
0w
0x
0y
0z
0{
0|
0}
0~
0!!
0"!
0#!
0$!
0%!
0&!
0'!
1(!
0)!
0*!
0+!
0,!
0-!
0.!
0/!
00!
01!
02!
03!
04!
05!
0=!
0<!
0;!
0:!
09!
08!
07!
06!
0E!
0D!
0C!
0B!
0A!
0@!
0?!
0>!
0M!
0L!
0K!
0J!
0I!
0H!
0G!
0F!
1U!
1T!
1S!
0R!
0Q!
0P!
0O!
0N!
0]!
0\!
0[!
0Z!
0Y!
0X!
0W!
0V!
0e!
0d!
0c!
0b!
0a!
0`!
0_!
0^!
$end
#5000
1$
1,!
1-!
0I
#10000
0$
0,!
0-!
1I
#15000
1#
1$
1_
1,!
1-!
0I
#15001
1e!
1d!
1c!
1&!
1%!
1~
1'!
1!!
1@
1?
1>
0(!
0Q
0(
#20000
0$
0,!
0-!
1I
#25000
1$
1,!
1-!
0I
#30000
b1 &
b101 %
b100 %
0#
0$
0U!
0T!
1M!
0_
0,!
0-!
1I
1c
#35000
1$
1,!
1-!
0I
#40000
0$
0,!
0-!
1I
#45000
1#
1$
1_
1,!
1-!
0I
1E!
1T
0R
10
1U
#45001
0e!
0d!
0&!
0%!
0@
0?
#50000
0$
0,!
0-!
1I
#55000
1$
1,!
1-!
0I
#60000
b11 &
b10 &
b110 %
0#
0$
1T!
0M!
1L!
0_
0,!
0-!
1I
0c
1f
#65000
1$
1,!
1-!
0I
#70000
0$
0,!
0-!
1I
#75000
1#
1$
1_
1,!
1-!
0I
1D!
0E!
0V
0U
0T
1R
1/
00
1W
1V
1U
0W
#75001
1d!
1%!
0'!
1?
#80000
0$
0,!
0-!
1I
#85000
1$
1,!
1-!
0I
#90000
0"
b10 %
0'
1!
b0 &
b0 %
0#
0$
0g
0P
1a
0L!
0T!
0S!
0_
0,!
0-!
1b
1I
0f
#95000
1$
1,!
1-!
0I
#100000
0$
0,!
0-!
1I
#105000
1#
1$
1_
1,!
1-!
0I
1E!
1'!
1T
0R
10
0V
0U
1W
#105001
1e!
1&!
0'!
1@
#110000
0$
0,!
0-!
1I
#115000
1$
1,!
1-!
0I
#120000
0#
0$
0_
0,!
0-!
1I
#125000
1$
1,!
1-!
0I
#130000
0$
0,!
0-!
1I
#135000
1#
1$
1_
1,!
1-!
0I
1C!
0D!
0E!
0!!
1X
0W
1'!
1V
1U
0T
1R
1.
0/
00
1+!
0X
1W
0U
0+!
#140000
0$
0,!
0-!
1I
#145000
1$
1,!
1-!
0I
#150000
0#
0$
0_
0,!
0-!
1I
#155000
1$
1,!
1-!
0I
#160000
0$
0,!
0-!
1I
#165000
1#
1$
1_
1,!
1-!
0I
1E!
1T
0R
10
1U
#170000
0$
0,!
0-!
1I
#175000
1$
1,!
1-!
0I
#180000
0#
0$
0_
0,!
0-!
1I
#185000
1$
1,!
1-!
0I
#190000
0$
0,!
0-!
1I
#195000
1#
1$
1_
1,!
1-!
0I
1D!
0E!
0V
0U
0T
1R
1/
00
1X
0W
1V
1U
1+!
0X
1W
0+!
#200000
0$
0,!
0-!
1I
#205000
1$
1,!
1-!
0I
#210000
0#
0$
0_
0,!
0-!
1I
#215000
1$
1,!
1-!
0I
#220000
0$
0,!
0-!
1I
#225000
1#
1$
1_
1,!
1-!
0I
1E!
0'!
1T
0R
10
1(!
0V
0U
1Q
1X
0W
1(
1+!
#230000
0$
0,!
0-!
1I
#235000
1$
1,!
1-!
0I
#235001
1]!
1\!
1[!
15!
14!
13!
18
17
16
#240000
0#
0$
0_
0,!
0-!
1I
#245000
1$
1,!
1-!
0I
#250000
0$
0,!
0-!
1I
#255000
1#
1$
1_
1,!
1-!
0I
0C!
0D!
0E!
1!!
0X
1W
1'!
1V
1U
0T
1R
0.
0/
00
0(!
0+!
0W
0U
0Q
0(
#260000
0$
0,!
0-!
1I
#265000
1$
1,!
1-!
0I
#270000
0!
0#
0$
0a
0_
0,!
0-!
0b
1I
#275000
1$
1,!
1-!
0I
#280000
0$
0,!
0-!
1I
#285000
1#
1$
1_
1,!
1-!
0I
1E!
1T
0R
10
1U
#290000
0$
0,!
0-!
1I
#295000
1$
1,!
1-!
0I
#300000
0#
0$
0_
0,!
0-!
1I
#305000
1$
1,!
1-!
0I
#310000
0$
0,!
0-!
1I
#315000
1#
1$
1_
1,!
1-!
0I
1D!
0E!
0V
0U
0T
1R
1/
00
1W
1V
1U
0W
#320000
0$
0,!
0-!
1I
#325000
1$
1,!
1-!
0I
#330000
0#
0$
0_
0,!
0-!
1I
#335000
1$
1,!
1-!
0I
#340000
0$
0,!
0-!
1I
#345000
1#
1$
1_
1,!
1-!
0I
1E!
0'!
1T
0R
10
0V
0U
1W
#350000
0$
0,!
0-!
1I
#355000
1$
1,!
1-!
0I
#360000
0#
0$
0_
0,!
0-!
1I
#365000
1$
1,!
1-!
0I
#370000
0$
0,!
0-!
1I
#375000
1#
1$
1_
1,!
1-!
0I
1C!
0D!
0E!
0!!
1X
0W
1'!
1V
1U
0T
1R
1.
0/
00
1+!
0X
1W
0U
0+!
#380000
0$
0,!
0-!
1I
#385000
1$
1,!
1-!
0I
#390000
0#
0$
0_
0,!
0-!
1I
#395000
1$
1,!
1-!
0I
#400000
0$
0,!
0-!
1I
#405000
1#
1$
1_
1,!
1-!
0I
1E!
1T
0R
10
1U
#410000
0$
0,!
0-!
1I
#415000
1$
1,!
1-!
0I
#420000
0#
0$
0_
0,!
0-!
1I
#425000
1$
1,!
1-!
0I
#430000
0$
0,!
0-!
1I
#435000
1#
1$
1_
1,!
1-!
0I
1D!
0E!
0V
0U
0T
1R
1/
00
1X
0W
1V
1U
1+!
0X
1W
0+!
#440000
0$
0,!
0-!
1I
#445000
1$
1,!
1-!
0I
#450000
0#
0$
0_
0,!
0-!
1I
#455000
1$
1,!
1-!
0I
#460000
0$
0,!
0-!
1I
#465000
1#
1$
1_
1,!
1-!
0I
1E!
0'!
1T
0R
10
1(!
0V
0U
1Q
1X
0W
1(
1+!
1=!
1c
1d
0`
1H
1e
#470000
0$
0,!
0-!
1I
#475000
1$
1,!
1-!
0I
#480000
0#
0$
0_
0,!
0-!
1I
#485000
1$
1,!
1-!
0I
#490000
0$
0,!
0-!
1I
#495000
1#
1$
1_
1,!
1-!
0I
0C!
0D!
0E!
1!!
0X
1W
1'!
1V
1U
0T
1R
0.
0/
00
0(!
0+!
0W
0U
0Q
0(
#495001
0e!
0d!
0&!
0%!
0'!
0@
0?
#500000
0$
0,!
0-!
1I
#505000
1$
1,!
1-!
0I
#510000
0#
0$
0_
0,!
0-!
1I
#515000
1$
1,!
1-!
0I
#520000
0$
0,!
0-!
1I
#525000
1#
1$
1_
1,!
1-!
0I
1E!
1'!
1T
0R
10
1U
#530000
0$
0,!
0-!
1I
#535000
1$
1,!
1-!
0I
#540000
0#
0$
0_
0,!
0-!
1I
#545000
1$
1,!
1-!
0I
#550000
0$
0,!
0-!
1I
#555000
1#
1$
1_
1,!
1-!
0I
1D!
0E!
0V
0U
0T
1R
1/
00
1W
1V
1U
0W
#560000
0$
0,!
0-!
1I
#565000
1$
1,!
1-!
0I
#570000
0#
0$
0_
0,!
0-!
1I
#575000
1$
1,!
1-!
0I
#580000
0$
0,!
0-!
1I
#585000
1#
1$
1_
1,!
1-!
0I
1E!
1T
0R
10
0V
0U
1W
#590000
0$
0,!
0-!
1I
#595000
1$
1,!
1-!
0I
#600000
0#
0$
0_
0,!
0-!
1I
#605000
1$
1,!
1-!
0I
#610000
0$
0,!
0-!
1I
#615000
1#
1$
1_
1,!
1-!
0I
1C!
0D!
0E!
0!!
1X
0W
0'!
1V
1U
0T
1R
1.
0/
00
1(!
1+!
0X
1W
0U
1Q
0+!
1(
1<!
0=!
1f
0h
0e
0c
0d
1`
1G
0H
1i
1h
1e
0i
#620000
0$
0,!
0-!
1I
#625000
1$
1,!
1-!
0I
#625001
0]!
0\!
05!
04!
08
07
#630000
0#
0$
0_
0,!
0-!
1I
#635000
1$
1,!
1-!
0I
#640000
0$
0,!
0-!
1I
#645000
1#
1$
1_
1,!
1-!
0I
0C!
1!!
0W
0.
0(!
0Q
0(
#645001
1d!
1%!
1'!
1?
#650000
0$
0,!
0-!
1I
#655000
1$
1,!
1-!
0I
#660000
0#
0$
0_
0,!
0-!
1I
#665000
1$
1,!
1-!
0I
#670000
0$
0,!
0-!
1I
#675000
1#
1$
1_
1,!
1-!
0I
1E!
1T
0R
10
1U
#680000
0$
0,!
0-!
1I
#685000
1$
1,!
1-!
0I
#690000
0#
0$
0_
0,!
0-!
1I
#695000
1$
1,!
1-!
0I
#700000
0$
0,!
0-!
1I
#705000
1#
1$
1_
1,!
1-!
0I
1D!
0E!
0'!
0V
0U
0T
1R
1/
00
1W
1V
1U
0W
#710000
0$
0,!
0-!
1I
#715000
1$
1,!
1-!
0I
#720000
0#
0$
0_
0,!
0-!
1I
#725000
1$
1,!
1-!
0I
#730000
0$
0,!
0-!
1I
#735000
1#
1$
1_
1,!
1-!
0I
1E!
1'!
1T
0R
10
0V
0U
1W
#740000
0$
0,!
0-!
1I
#745000
1$
1,!
1-!
0I
#750000
0#
0$
0_
0,!
0-!
1I
#755000
1$
1,!
1-!
0I
#760000
0$
0,!
0-!
1I
#765000
1#
1$
1_
1,!
1-!
0I
1C!
0D!
0E!
0!!
1X
0W
1V
1U
0T
1R
1.
0/
00
1+!
0X
1W
0U
0+!
#770000
0$
0,!
0-!
1I
#775000
1$
1,!
1-!
0I
#780000
0#
0$
0_
0,!
0-!
1I
#785000
1$
1,!
1-!
0I
#790000
0$
0,!
0-!
1I
#795000
1#
1$
1_
1,!
1-!
0I
1E!
1T
0R
10
1U
#800000
0$
0,!
0-!
1I
#805000
1$
1,!
1-!
0I
#810000
0#
0$
0_
0,!
0-!
1I
#815000
1$
1,!
1-!
0I
#820000
0$
0,!
0-!
1I
#825000
1#
1$
1_
1,!
1-!
0I
1D!
0E!
0'!
0V
0U
0T
1R
1/
00
1(!
1X
0W
1V
1U
1Q
1+!
0X
1W
1(
0+!
1=!
1c
1d
0`
1H
0h
0e
1i
#830000
0$
0,!
0-!
1I
#835000
1$
1,!
1-!
0I
#835001
1\!
14!
17
#840000
0#
0$
0_
0,!
0-!
1I
#845000
1$
1,!
1-!
0I
#850000
0$
0,!
0-!
1I
#855000
1#
1$
1_
1,!
1-!
0I
0C!
0D!
1!!
0W
1'!
0U
0.
0/
0(!
0Q
0(
#855001
0d!
0c!
0%!
0~
0'!
0!!
0?
0>
1(!
1Q
1(
1;!
0<!
0=!
1j
1k
0i
0f
1h
1e
0c
0d
1`
1F
0G
0H
1l
0k
1i
0e
0l
#860000
0$
0,!
0-!
1I
#865000
1$
1,!
1-!
0I
#865001
0\!
0[!
04!
03!
07
06
#870000
0#
0$
0_
0,!
0-!
1I
#875000
1$
1,!
1-!
0I
#880000
0$
0,!
0-!
1I
#885000
1#
1$
1_
1,!
1-!
0I
#890000
0$
0,!
0-!
1I
#895000
1$
1,!
1-!
0I
#900000
0#
0$
0_
0,!
0-!
1I
#905000
1$
1,!
1-!
0I
#910000
0$
0,!
0-!
1I
#915000
1#
1$
1_
1,!
1-!
0I
#920000
0$
0,!
0-!
1I
#925000
1$
1,!
1-!
0I
#930000
0#
0$
0_
0,!
0-!
1I
#935000
1$
1,!
1-!
0I
#940000
0$
0,!
0-!
1I
#945000
1#
1$
1_
1,!
1-!
0I
#950000
0$
0,!
0-!
1I
#955000
1$
1,!
1-!
0I
#960000
0#
0$
0_
0,!
0-!
1I
#965000
1$
1,!
1-!
0I
#970000
0$
0,!
0-!
1I
#975000
1#
1$
1_
1,!
1-!
0I
#980000
0$
0,!
0-!
1I
#985000
1$
1,!
1-!
0I
#990000
0#
0$
0_
0,!
0-!
1I
#995000
1$
1,!
1-!
0I
